^C:\USERS\BEREZ\CLIONPROJECTS\LABOR_C++\LABOR\LAB_6_GYAKORLAS\MONOCIKLI.CPP\MONOCIKLI.CPP\DEBUG\MONOCIKLI.OBJ
C:\USERS\BEREZ\CLIONPROJECTS\LABOR_C++\LABOR\LAB_6_GYAKORLAS\MONOCIKLI.CPP\DEBUG\MONOCIKLI.CPP.EXE
C:\USERS\BEREZ\CLIONPROJECTS\LABOR_C++\LABOR\LAB_6_GYAKORLAS\MONOCIKLI.CPP\DEBUG\MONOCIKLI.CPP.ILK
C:\USERS\BEREZ\CLIONPROJECTS\LABOR_C++\LABOR\LAB_6_GYAKORLAS\MONOCIKLI.CPP\DEBUG\MONOCIKLI.CPP.PDB
